[{
    "_id": {
      "$oid": "5fc6ff512b818d00207f2f2b"
    },
    "nombreCategoria": "Lacteos",
    "imgCategoria": "https://res.cloudinary.com/pbpc/image/upload/v1606185923/GoMarket/c-lacteos_d2z1zz.png"
  },{
    "_id": {
      "$oid": "5fc6ff512b818d00207f2f2c"
    },
    "nombreCategoria": "Frutas",
    "imgCategoria": "https://res.cloudinary.com/pbpc/image/upload/v1606185904/GoMarket/c-frutas_yjcowl.png"
  },{
    "_id": {
      "$oid": "5fc6ff512b818d00207f2f2d"
    },
    "nombreCategoria": "Verduras",
    "imgCategoria": "https://res.cloudinary.com/pbpc/image/upload/v1606187003/GoMarket/c-verduras_is0n0s.jpg"
  },{
    "_id": {
      "$oid": "5fc6ff512b818d00207f2f2e"
    },
    "nombreCategoria": "Abarrotes",
    "imgCategoria": "https://res.cloudinary.com/pbpc/image/upload/v1606186989/GoMarket/c-abarrotes_zhdgaw.jpg"
  },{
    "_id": {
      "$oid": "5fc6ff512b818d00207f2f2f"
    },
    "nombreCategoria": "Carnes",
    "imgCategoria": "https://res.cloudinary.com/pbpc/image/upload/v1606185865/GoMarket/c-carnes_zoxiym.png"
  },{
    "_id": {
      "$oid": "5fc6ff512b818d00207f2f31"
    },
    "nombreCategoria": "Higiene",
    "imgCategoria": "https://res.cloudinary.com/pbpc/image/upload/v1606185949/GoMarket/c-limpieza_u2vf1g.png"
  },{
    "_id": {
      "$oid": "5fc6ff512b818d00207f2f30"
    },
    "nombreCategoria": "Pescados",
    "imgCategoria": "https://res.cloudinary.com/pbpc/image/upload/v1606185984/GoMarket/c-pescados_d9nlb2.png"
  }]