[
    {
      "vendedor":"Carmelita",
      "img": "./assets/img/Carmelita.jpg",
      "url":"/detalle-reserva",
      "tipo":"Vendedores"
    },
    {
        "vendedor":"Frutas",
        "img": "./assets/img/Carmelita.jpg",
        "url":"/detalle-reserva",
        "tipo":"Categorias"
      }
  ]